…
``` r
# The formula of the line is log(p/1-p) = 2.63 - 0.17 temp_avg, where p is the probability that the wind is in the west direction.
```

``` r
wind_dir_pred_1 <- predict(wind_dir_fit_1, nyweather_test, type = "prob") %>% 
  bind_cols(nyweather_test) 
wind_dir_pred_1 # Using fitted model to predict the testing data.
```

```
## # A tibble: 2,190 × 31
##    .pred_no .pred_yes day   time     cool_deg_hrs cloud_brkn_pct cloud_clr_pct
##       <dbl>     <dbl> <chr> <chr>           <dbl>          <dbl>         <dbl>
##  1   0.0723     0.928 01-01 04:00:00            0           14.3          23.4
##  2   0.0705     0.930 01-01 06:00:00            0           12.7          18.4
##  3   0.0705     0.930 01-01 07:00:00            0           22.8           9.9
##  4   0.110      0.890 01-01 12:00:00           NA           22.9          11.6
##  5   0.117      0.883 01-01 13:00:00           NA           25.1          11.1
##  6   0.0970     0.903 01-01 19:00:00            0           17.2          17  
##  7   0.0854     0.915 01-01 22:00:00            0           17.5          21.8
##  8   0.0762     0.924 01-02 01:00:00            0           12.4          23.1
##  9   0.116      0.884 01-02 13:00:00           NA           25.9          11.5
## 10   0.0876     0.912 01-02 21:00:00            0           17.3          18.9
## # ℹ 2,180 more rows
## # ℹ 24 more variables: cloud_few_pct <dbl>, cloud_ovrcst_pct <dbl>,
## #   cloud_scat_pct <dbl>, dewp_10 <dbl>, dewp_90 <dbl>, dewp_avg <dbl>,
## #   heat_index_avg <dbl>, heat_deg_hrs <dbl>, pres_10pctl <dbl>,
## #   pres_90pctl <dbl>, pres_avg <dbl>, temp_10pctl <dbl>, temp_90pctl <dbl>,
## #   temp_avg <dbl>, wind_chill_avg <dbl>, wind_main_dir <dbl>,
## #   wind_main_pct <dbl>, wind_2nd_dir <dbl>, wind_2nd_pct <dbl>, …
```
…
